<svg width="9" height="17" viewBox="0 0 9 17" fill="none" xmlns="http://www.w3.org/2000/svg">
<path d="M1 1L8 8.21436L1 15.4287" stroke="#F7F7FA" stroke-width="2" stroke-linecap="round" stroke-linejoin="round"/>
</svg>
