<svg width="64" height="64" viewBox="0 0 64 64" fill="none" xmlns="http://www.w3.org/2000/svg">
<g filter="url(#filter0_d)">
<circle cx="32" cy="20" r="16" fill="white"/>
</g>
<path d="M36.664 21.7634C36.9696 22.0789 37.4652 22.0789 37.7708 21.7634C38.0764 21.448 38.0764 20.9366 37.7708 20.6212L32.5534 15.2366C32.2478 14.9211 31.7522 14.9211 31.4466 15.2366L26.2292 20.6212C25.9236 20.9366 25.9236 21.448 26.2292 21.7634C26.5348 22.0789 27.0304 22.0789 27.336 21.7634L32 16.9499L36.664 21.7634Z" fill="#F33699"/>
<defs>
<filter id="filter0_d" x="0" y="0" width="64" height="64" filterUnits="userSpaceOnUse" color-interpolation-filters="sRGB">
<feFlood flood-opacity="0" result="BackgroundImageFix"/>
<feColorMatrix in="SourceAlpha" type="matrix" values="0 0 0 0 0 0 0 0 0 0 0 0 0 0 0 0 0 0 127 0"/>
<feOffset dy="12"/>
<feGaussianBlur stdDeviation="8"/>
<feColorMatrix type="matrix" values="0 0 0 0 0.704167 0 0 0 0 0.00586808 0 0 0 0 0.369812 0 0 0 0.48 0"/>
<feBlend mode="normal" in2="BackgroundImageFix" result="effect1_dropShadow"/>
<feBlend mode="normal" in="SourceGraphic" in2="effect1_dropShadow" result="shape"/>
</filter>
</defs>
</svg>
