<svg width="137" height="208" viewBox="0 0 137 208" fill="none" xmlns="http://www.w3.org/2000/svg">
<path d="M88.2353 53V61M84 57H92" stroke="#F0047F"/>
<path d="M133.235 155V163M129 159H137" stroke="#F0047F"/>
<path d="M44.2353 101V109M40 105H48" stroke="#F0047F"/>
<circle cx="88" cy="106" r="1.5" fill="#F0047F" stroke="#F0047F"/>
<circle cx="88" cy="206" r="1.5" fill="#F0047F" stroke="#F0047F"/>
<circle cx="44" cy="159" r="1.5" fill="#F0047F" stroke="#F0047F"/>
<circle cx="2" cy="106" r="1.5" fill="#F0047F" stroke="#F0047F"/>
<circle cx="2" cy="57" r="1.5" fill="#F0047F" stroke="#F0047F"/>
<circle cx="44" cy="57" r="1.5" fill="#F0047F" stroke="#F0047F"/>
<circle cx="44" cy="2" r="1.5" fill="#F0047F" stroke="#F0047F"/>
<circle cx="88" cy="2" r="1.5" fill="#F0047F" stroke="#F0047F"/>
<circle cx="88" cy="159" r="1.5" fill="#F0047F" stroke="#F0047F"/>
</svg>
