<svg width="85" height="108" viewBox="0 0 85 108" fill="none" xmlns="http://www.w3.org/2000/svg">
<rect x="5.10254" y="2" width="74.4688" height="79.1017" rx="2" stroke="#F668B2" stroke-width="2.5"/>
<path d="M2.65562 98.9275C2.38992 99.2495 2.61245 99.7361 3.02979 99.7456L13.7754 99.9922C13.9356 99.9959 14.0879 99.9225 14.1849 99.795L28.3926 81.1121L17.341 81.1317L2.65562 98.9275Z" stroke="url(#paint0_linear)" stroke-width="2.5"/>
<path d="M82.0307 98.0339C82.295 98.3517 82.0813 98.8348 81.6683 98.8531L71.0797 99.3219C70.9162 99.3292 70.7595 99.2559 70.6601 99.1258L57.0757 81.3319L67.9613 81.1144L82.0307 98.0339Z" stroke="url(#paint1_linear)" stroke-width="2.5"/>
<rect x="14.4111" y="20.6172" width="55.8516" height="31.0287" rx="2" stroke="#F668B2" stroke-width="2.5"/>
<circle cx="21.2686" cy="65.9545" r="5" stroke="url(#paint2_linear)" stroke-width="2.5"/>
<circle cx="62" cy="65.9545" r="5" stroke="url(#paint3_linear)" stroke-width="2.5"/>
<line x1="33.25" y1="63.8929" x2="49.3672" y2="63.8929" stroke="url(#paint4_linear)" stroke-width="2.5" stroke-linecap="round"/>
<line x1="33.25" y1="67.6071" x2="49.3672" y2="67.6071" stroke="url(#paint5_linear)" stroke-width="2.5" stroke-linecap="round"/>
<line x1="35.25" y1="12.8214" x2="51.3672" y2="12.8214" stroke="url(#paint6_linear)" stroke-width="2.5" stroke-linecap="round"/>
<circle cx="27.8232" cy="13.1" r="1" fill="url(#paint7_radial)"/>
<circle cx="59" cy="13.1" r="1" fill="url(#paint8_radial)"/>
<defs>
<linearGradient id="paint0_linear" x1="6.48296" y1="102.861" x2="23.9097" y2="77.9731" gradientUnits="userSpaceOnUse">
<stop stop-color="#F668B2"/>
<stop offset="1" stop-color="#F668B2" stop-opacity="0"/>
</linearGradient>
<linearGradient id="paint1_linear" x1="78.1918" y1="101.948" x2="61.5587" y2="78.1929" gradientUnits="userSpaceOnUse">
<stop stop-color="#F668B2"/>
<stop offset="1" stop-color="#F668B2" stop-opacity="0"/>
</linearGradient>
<linearGradient id="paint2_linear" x1="31.8455" y1="-24.7601" x2="11.3785" y2="-24.2791" gradientUnits="userSpaceOnUse">
<stop stop-color="white"/>
<stop offset="1" stop-color="white" stop-opacity="0"/>
</linearGradient>
<linearGradient id="paint3_linear" x1="72.577" y1="-24.7601" x2="52.1099" y2="-24.2791" gradientUnits="userSpaceOnUse">
<stop stop-color="white"/>
<stop offset="1" stop-color="white" stop-opacity="0"/>
</linearGradient>
<linearGradient id="paint4_linear" x1="61" y1="56.5714" x2="29" y2="70.5714" gradientUnits="userSpaceOnUse">
<stop stop-color="white"/>
<stop offset="1" stop-color="white" stop-opacity="0"/>
</linearGradient>
<linearGradient id="paint5_linear" x1="61" y1="60.2857" x2="29" y2="74.2857" gradientUnits="userSpaceOnUse">
<stop stop-color="white"/>
<stop offset="1" stop-color="white" stop-opacity="0"/>
</linearGradient>
<linearGradient id="paint6_linear" x1="63" y1="5.49998" x2="31" y2="19.5" gradientUnits="userSpaceOnUse">
<stop stop-color="white"/>
<stop offset="1" stop-color="white" stop-opacity="0"/>
</linearGradient>
<radialGradient id="paint7_radial" cx="0" cy="0" r="1" gradientUnits="userSpaceOnUse" gradientTransform="translate(32 8.99999) rotate(137.291) scale(8.8459)">
<stop stop-color="#2B2B3A"/>
<stop offset="1" stop-color="#2B2B3A" stop-opacity="0"/>
</radialGradient>
<radialGradient id="paint8_radial" cx="0" cy="0" r="1" gradientUnits="userSpaceOnUse" gradientTransform="translate(63.1768 8.99999) rotate(137.291) scale(8.8459)">
<stop stop-color="#2B2B3A"/>
<stop offset="1" stop-color="#2B2B3A" stop-opacity="0"/>
</radialGradient>
</defs>
</svg>
