<svg width="47" height="46" viewBox="0 0 47 46" fill="none" xmlns="http://www.w3.org/2000/svg">
<rect opacity="0.2" x="0.0742188" width="46" height="46" rx="23" fill="url(#paint0_linear)"/>
<path d="M29.4815 13H17.9259C16.8623 13 16 13.9228 16 15.0612V31.5506C16 32.689 16.8623 33.6118 17.9259 33.6118H29.4815C30.5451 33.6118 31.4074 32.689 31.4074 31.5506V15.0612C31.4074 13.9228 30.5451 13 29.4815 13Z" stroke="#F0047F" stroke-width="1.5" stroke-linecap="round" stroke-linejoin="round"/>
<path d="M23.7036 29.4893H23.7136" stroke="#F0047F" stroke-width="1.5" stroke-linecap="round" stroke-linejoin="round"/>
<defs>
<linearGradient id="paint0_linear" x1="60.6704" y1="-4.86539" x2="23.0742" y2="46" gradientUnits="userSpaceOnUse">
<stop stop-color="#F0047F"/>
<stop offset="1" stop-color="#F0047F" stop-opacity="0"/>
</linearGradient>
</defs>
</svg>
